CAR STATS

Total cars:              49815     
Tree height:             38        
Cheapest car:            94545.5        alpina              innocent duck       
Most expensive car:      99997.8        honda               purple kudu         
